{
  "pluginsFile": "tests/e2e/plugins/index.js",
  "viewportWidth": 1280,
  "viewportHeight": 800,
  "reporterOptions": {
    "reportDir": "tests/e2e/report",
    "overwrite": false,
    "html": false,
    "json": true,
    "timestamp": "mmddyyyy"
  },
  "env": {
    "host": "http://vueszx.admin.test/",
    "api": "http://api.test.com/"
  }
}
